{
  "project_info": {
    "project_number": "num",
    "project_id": "id",
    "storage_bucket": "bucker"
  },
  "client": [
    {
      "client_info": {
        "mobilesdk_app_id": "abcd",
        "android_client_info": {
          "package_name": "com.talapady.neon.pinball.calm.relax.music"
        }
      },
      "oauth_client": [
        {
          "client_id": "abcd",
          "client_type": 3
        }
      ],
      "api_key": [
        {
          "current_key": "abcd"
        }
      ],
      "services": {
        "appinvite_service": {
          "other_platform_oauth_client": [
            {
              "client_id": "abcd",
              "client_type": 3
            }
          ]
        }
      }
    }
  ],
  "configuration_version": "1"
}